('C:\\Users\\lukasz.jasinski\\PycharmProjects\\fifarafa\\build\\Gratka\\PKG-00.pkg',
 {'BINARY': 1,
  'DATA': 1,
  'EXECUTABLE': 1,
  'EXTENSION': 1,
  'PYMODULE': 1,
  'PYSOURCE': 1,
  'PYZ': 0},
 [('PYZ-00.pyz',
   'C:\\Users\\lukasz.jasinski\\PycharmProjects\\fifarafa\\build\\Gratka\\PYZ-00.pyz',
   'PYZ'),
  ('struct',
   'c:\\users\\lukasz.jasinski\\appdata\\local\\programs\\python\\python38-32\\lib\\struct.pyo',
   'PYMODULE'),
  ('pyimod01_os_path',
   'c:\\users\\lukasz.jasinski\\appdata\\local\\programs\\python\\python38-32\\lib\\site-packages\\PyInstaller\\loader\\pyimod01_os_path.pyc',
   'PYMODULE'),
  ('pyimod02_archive',
   'c:\\users\\lukasz.jasinski\\appdata\\local\\programs\\python\\python38-32\\lib\\site-packages\\PyInstaller\\loader\\pyimod02_archive.pyc',
   'PYMODULE'),
  ('pyimod03_importers',
   'c:\\users\\lukasz.jasinski\\appdata\\local\\programs\\python\\python38-32\\lib\\site-packages\\PyInstaller\\loader\\pyimod03_importers.pyc',
   'PYMODULE'),
  ('pyiboot01_bootstrap',
   'c:\\users\\lukasz.jasinski\\appdata\\local\\programs\\python\\python38-32\\lib\\site-packages\\PyInstaller\\loader\\pyiboot01_bootstrap.py',
   'PYSOURCE'),
  ('pyi_rth__tkinter',
   'C:\\Users\\lukasz.jasinski\\AppData\\Local\\Programs\\Python\\Python38-32\\Lib\\site-packages\\PyInstaller\\loader\\rthooks\\pyi_rth__tkinter.py',
   'PYSOURCE'),
  ('pyi_rth_multiprocessing',
   'C:\\Users\\lukasz.jasinski\\AppData\\Local\\Programs\\Python\\Python38-32\\Lib\\site-packages\\PyInstaller\\loader\\rthooks\\pyi_rth_multiprocessing.py',
   'PYSOURCE'),
  ('pyi_rth_pkgres',
   'C:\\Users\\lukasz.jasinski\\AppData\\Local\\Programs\\Python\\Python38-32\\Lib\\site-packages\\PyInstaller\\loader\\rthooks\\pyi_rth_pkgres.py',
   'PYSOURCE'),
  ('pyi_rth_certifi',
   'C:\\Users\\lukasz.jasinski\\AppData\\Local\\Programs\\Python\\Python38-32\\Lib\\site-packages\\PyInstaller\\loader\\rthooks\\pyi_rth_certifi.py',
   'PYSOURCE'),
  ('Gratka',
   'C:\\Users\\lukasz.jasinski\\PycharmProjects\\fifarafa\\Gratka.py',
   'PYSOURCE'),
  ('Gratka.exe.manifest',
   'C:\\Users\\lukasz.jasinski\\PycharmProjects\\fifarafa\\build\\Gratka\\Gratka.exe.manifest',
   'BINARY')],
 True,
 False,
 False,
 [])
